Web Search interest: Child custody; divorce
Los Angeles CA (United States); Past 7 days

Interest over time
Time,Child custody,divorce
2015-11-21-18:00 UTC,8,27
2015-11-21-19:00 UTC,11,21
2015-11-21-20:00 UTC,11,17
2015-11-21-21:00 UTC,7,28
2015-11-21-22:00 UTC,13,12
2015-11-21-23:00 UTC,15,19
2015-11-22-00:00 UTC,15,24
2015-11-22-01:00 UTC,25,19
2015-11-22-02:00 UTC,10,27
2015-11-22-03:00 UTC,13,19
2015-11-22-04:00 UTC,5,23
2015-11-22-05:00 UTC,10,10
2015-11-22-06:00 UTC,14,27
2015-11-22-07:00 UTC,17,12
2015-11-22-08:00 UTC,7,17
2015-11-22-09:00 UTC,21,16
2015-11-22-10:00 UTC,24,32
2015-11-22-11:00 UTC,23,12
2015-11-22-12:00 UTC,43,43
2015-11-22-13:00 UTC,24,35
2015-11-22-14:00 UTC,13,26
2015-11-22-15:00 UTC,10,55
2015-11-22-16:00 UTC,9,42
2015-11-22-17:00 UTC,17,36
2015-11-22-18:00 UTC,10,20
2015-11-22-19:00 UTC,16,17
2015-11-22-20:00 UTC,15,12
2015-11-22-21:00 UTC,13,31
2015-11-22-22:00 UTC,12,19
2015-11-22-23:00 UTC,14,23
2015-11-23-00:00 UTC,19,34
2015-11-23-01:00 UTC,17,24
2015-11-23-02:00 UTC,14,21
2015-11-23-03:00 UTC,24,27
2015-11-23-04:00 UTC,11,26
2015-11-23-05:00 UTC,14,35
2015-11-23-06:00 UTC,21,33
2015-11-23-07:00 UTC,12,33
2015-11-23-08:00 UTC,7,56
2015-11-23-09:00 UTC,12,18
2015-11-23-10:00 UTC,10,78
2015-11-23-11:00 UTC,26,39
2015-11-23-12:00 UTC,26,77
2015-11-23-13:00 UTC,17,100
2015-11-23-14:00 UTC,26,22
2015-11-23-15:00 UTC,41,28
2015-11-23-16:00 UTC,19,41
2015-11-23-17:00 UTC,23,44
2015-11-23-18:00 UTC,37,29
2015-11-23-19:00 UTC,23,37
2015-11-23-20:00 UTC,21,25
2015-11-23-21:00 UTC,27,39
2015-11-23-22:00 UTC,18,25
2015-11-23-23:00 UTC,22,49
2015-11-24-00:00 UTC,22,35
2015-11-24-01:00 UTC,18,45
2015-11-24-02:00 UTC,20,26
2015-11-24-03:00 UTC,15,32
2015-11-24-04:00 UTC,16,49
2015-11-24-05:00 UTC,21,41
2015-11-24-06:00 UTC,14,46
2015-11-24-07:00 UTC,21,43
2015-11-24-08:00 UTC,26,52
2015-11-24-09:00 UTC,31,49
2015-11-24-10:00 UTC,38,57
2015-11-24-11:00 UTC,25,13
2015-11-24-12:00 UTC,37,37
2015-11-24-13:00 UTC,32,24
2015-11-24-14:00 UTC,22,43
2015-11-24-15:00 UTC,15,48
2015-11-24-16:00 UTC,20,36
2015-11-24-17:00 UTC,20,36
2015-11-24-18:00 UTC,20,34
2015-11-24-19:00 UTC,23,36
2015-11-24-20:00 UTC,14,60
2015-11-24-21:00 UTC,31,38
2015-11-24-22:00 UTC,30,34
2015-11-24-23:00 UTC,14,30
2015-11-25-00:00 UTC,18,32
2015-11-25-01:00 UTC,15,34
2015-11-25-02:00 UTC,27,34
2015-11-25-03:00 UTC,17,42
2015-11-25-04:00 UTC,18,35
2015-11-25-05:00 UTC,18,21
2015-11-25-06:00 UTC,21,36
2015-11-25-07:00 UTC,26,28
2015-11-25-08:00 UTC,22,33
2015-11-25-09:00 UTC,29,52
2015-11-25-10:00 UTC,46,28
2015-11-25-11:00 UTC,12,12
2015-11-25-12:00 UTC,12,59
2015-11-25-13:00 UTC,16,39
2015-11-25-14:00 UTC,26,22
2015-11-25-15:00 UTC,20,36
2015-11-25-16:00 UTC,25,23
2015-11-25-17:00 UTC,23,35
2015-11-25-18:00 UTC,17,33
2015-11-25-19:00 UTC,16,21
2015-11-25-20:00 UTC,19,31
2015-11-25-21:00 UTC,17,28
2015-11-25-22:00 UTC,13,29
2015-11-25-23:00 UTC,9,15
2015-11-26-00:00 UTC,15,23
2015-11-26-01:00 UTC,20,7
2015-11-26-02:00 UTC,9,29
2015-11-26-03:00 UTC,16,22
2015-11-26-04:00 UTC,15,21
2015-11-26-05:00 UTC,9,25
2015-11-26-06:00 UTC,15,29
2015-11-26-07:00 UTC,12,28
2015-11-26-08:00 UTC,13,34
2015-11-26-09:00 UTC,16,26
2015-11-26-10:00 UTC,16,16
2015-11-26-11:00 UTC,23,58
2015-11-26-12:00 UTC,21,13
2015-11-26-13:00 UTC,21,10
2015-11-26-14:00 UTC,6,23
2015-11-26-15:00 UTC,13,31
2015-11-26-16:00 UTC,9,27
2015-11-26-17:00 UTC,7,20
2015-11-26-18:00 UTC,3,28
2015-11-26-19:00 UTC,6,13
2015-11-26-20:00 UTC,13,11
2015-11-26-21:00 UTC,5,15
2015-11-26-22:00 UTC,8,15
2015-11-26-23:00 UTC,7,14
2015-11-27-00:00 UTC,12,12
2015-11-27-01:00 UTC,7,26
2015-11-27-02:00 UTC,5,10
2015-11-27-03:00 UTC,5,21
2015-11-27-04:00 UTC,5,21
2015-11-27-05:00 UTC,10,29
2015-11-27-06:00 UTC,11,27
2015-11-27-07:00 UTC,7,24
2015-11-27-08:00 UTC,7,20
2015-11-27-09:00 UTC,5,15
2015-11-27-10:00 UTC,54,23
2015-11-27-11:00 UTC,33,66
2015-11-27-12:00 UTC,29,12
2015-11-27-13:00 UTC,29,29
2015-11-27-14:00 UTC,12,64
2015-11-27-15:00 UTC,16,19
2015-11-27-16:00 UTC,4,17
2015-11-27-17:00 UTC,9,22
2015-11-27-18:00 UTC,6,24
2015-11-27-19:00 UTC,13,26
2015-11-27-20:00 UTC,24,14
2015-11-27-21:00 UTC,7,14
2015-11-27-22:00 UTC,10,21
2015-11-27-23:00 UTC,20,24
2015-11-28-00:00 UTC,7,17
2015-11-28-01:00 UTC,6,22
2015-11-28-02:00 UTC,10,23
2015-11-28-03:00 UTC,6,25
2015-11-28-04:00 UTC,12,39
2015-11-28-05:00 UTC,11,34
2015-11-28-06:00 UTC,13,34
2015-11-28-07:00 UTC,14,23
2015-11-28-08:00 UTC,10,10
2015-11-28-09:00 UTC,16,26
2015-11-28-10:00 UTC,20,48
2015-11-28-11:00 UTC,24,71
2015-11-28-12:00 UTC,14,28
2015-11-28-13:00 UTC,12,49
2015-11-28-14:00 UTC,42,70
2015-11-28-15:00 UTC,4,74
2015-11-28-16:00 UTC,7,44
2015-11-28-17:00 UTC,16,16

Interest over time
Time,Legal,Child custody,divorce
2015-11-21-18:00 UTC,+0%,+0%,+0%
2015-11-21-19:00 UTC,+2%,+33%,-22%
2015-11-21-20:00 UTC,-2%,+33%,-37%
2015-11-21-21:00 UTC,-2%,-7%,+4%
2015-11-21-22:00 UTC,-6%,+67%,-56%
2015-11-21-23:00 UTC,-2%,+80%,-30%
2015-11-22-00:00 UTC,-2%,+80%,-11%
2015-11-22-01:00 UTC,+0%,+207%,-30%
2015-11-22-02:00 UTC,-6%,+27%,+0%
2015-11-22-03:00 UTC,-10%,+67%,-30%
2015-11-22-04:00 UTC,+2%,-47%,-15%
2015-11-22-05:00 UTC,-8%,+20%,-63%
2015-11-22-06:00 UTC,+2%,+80%,+0%
2015-11-22-07:00 UTC,-4%,+107%,-56%
2015-11-22-08:00 UTC,+4%,-13%,-37%
2015-11-22-09:00 UTC,-4%,+160%,-41%
2015-11-22-10:00 UTC,+12%,+200%,+19%
2015-11-22-11:00 UTC,+16%,+187%,-56%
2015-11-22-12:00 UTC,+29%,+427%,+59%
2015-11-22-13:00 UTC,+8%,+193%,+30%
2015-11-22-14:00 UTC,+24%,+60%,-4%
2015-11-22-15:00 UTC,+16%,+27%,+104%
2015-11-22-16:00 UTC,+2%,+13%,+56%
2015-11-22-17:00 UTC,+6%,+107%,+33%
2015-11-22-18:00 UTC,-2%,+20%,-26%
2015-11-22-19:00 UTC,-4%,+93%,-37%
2015-11-22-20:00 UTC,-4%,+87%,-56%
2015-11-22-21:00 UTC,-8%,+60%,+15%
2015-11-22-22:00 UTC,+0%,+47%,-30%
2015-11-22-23:00 UTC,+4%,+80%,-15%
2015-11-23-00:00 UTC,+4%,+127%,+26%
2015-11-23-01:00 UTC,+0%,+107%,-11%
2015-11-23-02:00 UTC,+0%,+73%,-22%
2015-11-23-03:00 UTC,+4%,+200%,+0%
2015-11-23-04:00 UTC,+4%,+33%,-4%
2015-11-23-05:00 UTC,+8%,+80%,+30%
2015-11-23-06:00 UTC,+6%,+153%,+22%
2015-11-23-07:00 UTC,+10%,+47%,+22%
2015-11-23-08:00 UTC,+22%,-7%,+107%
2015-11-23-09:00 UTC,+14%,+53%,-33%
2015-11-23-10:00 UTC,+33%,+20%,+189%
2015-11-23-11:00 UTC,+33%,+220%,+44%
2015-11-23-12:00 UTC,+31%,+213%,+185%
2015-11-23-13:00 UTC,+22%,+107%,+270%
2015-11-23-14:00 UTC,+31%,+227%,-19%
2015-11-23-15:00 UTC,+47%,+407%,+4%
2015-11-23-16:00 UTC,+69%,+140%,+52%
2015-11-23-17:00 UTC,+88%,+180%,+63%
2015-11-23-18:00 UTC,+96%,+360%,+7%
2015-11-23-19:00 UTC,+90%,+187%,+37%
2015-11-23-20:00 UTC,+75%,+160%,-7%
2015-11-23-21:00 UTC,+78%,+233%,+44%
2015-11-23-22:00 UTC,+90%,+127%,-7%
2015-11-23-23:00 UTC,+82%,+173%,+81%
2015-11-24-00:00 UTC,+73%,+180%,+30%
2015-11-24-01:00 UTC,+51%,+127%,+67%
2015-11-24-02:00 UTC,+31%,+147%,-4%
2015-11-24-03:00 UTC,+20%,+80%,+19%
2015-11-24-04:00 UTC,+24%,+100%,+81%
2015-11-24-05:00 UTC,+25%,+160%,+52%
2015-11-24-06:00 UTC,+25%,+67%,+70%
2015-11-24-07:00 UTC,+22%,+167%,+59%
2015-11-24-08:00 UTC,+24%,+227%,+93%
2015-11-24-09:00 UTC,+25%,+280%,+81%
2015-11-24-10:00 UTC,+25%,+373%,+111%
2015-11-24-11:00 UTC,+39%,+213%,-52%
2015-11-24-12:00 UTC,+39%,+360%,+37%
2015-11-24-13:00 UTC,+43%,+300%,-11%
2015-11-24-14:00 UTC,+41%,+167%,+59%
2015-11-24-15:00 UTC,+53%,+87%,+78%
2015-11-24-16:00 UTC,+73%,+140%,+33%
2015-11-24-17:00 UTC,+86%,+147%,+33%
2015-11-24-18:00 UTC,+92%,+140%,+26%
2015-11-24-19:00 UTC,+88%,+180%,+33%
2015-11-24-20:00 UTC,+82%,+73%,+122%
2015-11-24-21:00 UTC,+80%,+280%,+41%
2015-11-24-22:00 UTC,+82%,+267%,+26%
2015-11-24-23:00 UTC,+76%,+67%,+11%
2015-11-25-00:00 UTC,+57%,+120%,+19%
2015-11-25-01:00 UTC,+37%,+87%,+26%
2015-11-25-02:00 UTC,+27%,+227%,+26%
2015-11-25-03:00 UTC,+18%,+107%,+56%
2015-11-25-04:00 UTC,+18%,+120%,+30%
2015-11-25-05:00 UTC,+12%,+120%,-22%
2015-11-25-06:00 UTC,+12%,+153%,+33%
2015-11-25-07:00 UTC,+14%,+220%,+4%
2015-11-25-08:00 UTC,+18%,+167%,+22%
2015-11-25-09:00 UTC,+22%,+260%,+93%
2015-11-25-10:00 UTC,+29%,+467%,+4%
2015-11-25-11:00 UTC,+24%,+47%,-56%
2015-11-25-12:00 UTC,+39%,+47%,+119%
2015-11-25-13:00 UTC,+14%,+93%,+44%
2015-11-25-14:00 UTC,+24%,+220%,-19%
2015-11-25-15:00 UTC,+29%,+153%,+33%
2015-11-25-16:00 UTC,+47%,+213%,-15%
2015-11-25-17:00 UTC,+59%,+193%,+30%
2015-11-25-18:00 UTC,+63%,+113%,+22%
2015-11-25-19:00 UTC,+57%,+93%,-22%
2015-11-25-20:00 UTC,+43%,+127%,+15%
2015-11-25-21:00 UTC,+43%,+113%,+4%
2015-11-25-22:00 UTC,+39%,+67%,+7%
2015-11-25-23:00 UTC,+33%,+13%,-44%
2015-11-26-00:00 UTC,+20%,+87%,-15%
2015-11-26-01:00 UTC,+8%,+147%,-74%
2015-11-26-02:00 UTC,+6%,+7%,+7%
2015-11-26-03:00 UTC,-6%,+100%,-19%
2015-11-26-04:00 UTC,-4%,+87%,-22%
2015-11-26-05:00 UTC,-2%,+20%,-7%
2015-11-26-06:00 UTC,-6%,+80%,+7%
2015-11-26-07:00 UTC,-2%,+47%,+4%
2015-11-26-08:00 UTC,+2%,+67%,+26%
2015-11-26-09:00 UTC,+8%,+93%,-4%
2015-11-26-10:00 UTC,-4%,+100%,-41%
2015-11-26-11:00 UTC,+14%,+187%,+115%
2015-11-26-12:00 UTC,+2%,+153%,-52%
2015-11-26-13:00 UTC,+0%,+153%,-63%
2015-11-26-14:00 UTC,-18%,-27%,-15%
2015-11-26-15:00 UTC,-20%,+53%,+15%
2015-11-26-16:00 UTC,-25%,+7%,+0%
2015-11-26-17:00 UTC,-25%,-13%,-26%
2015-11-26-18:00 UTC,-24%,-60%,+4%
2015-11-26-19:00 UTC,-22%,-20%,-52%
2015-11-26-20:00 UTC,-25%,+53%,-59%
2015-11-26-21:00 UTC,-20%,-40%,-44%
2015-11-26-22:00 UTC,-25%,+0%,-44%
2015-11-26-23:00 UTC,-25%,-13%,-48%
2015-11-27-00:00 UTC,-27%,+53%,-56%
2015-11-27-01:00 UTC,-22%,-13%,-4%
2015-11-27-02:00 UTC,-20%,-33%,-63%
2015-11-27-03:00 UTC,-18%,-40%,-22%
2015-11-27-04:00 UTC,-14%,-40%,-22%
2015-11-27-05:00 UTC,-14%,+27%,+7%
2015-11-27-06:00 UTC,-14%,+40%,+0%
2015-11-27-07:00 UTC,-12%,-13%,-11%
2015-11-27-08:00 UTC,-12%,-20%,-26%
2015-11-27-09:00 UTC,-2%,-40%,-44%
2015-11-27-10:00 UTC,+4%,+567%,-15%
2015-11-27-11:00 UTC,+0%,+307%,+144%
2015-11-27-12:00 UTC,+6%,+267%,-56%
2015-11-27-13:00 UTC,-2%,+267%,+7%
2015-11-27-14:00 UTC,-6%,+40%,+137%
2015-11-27-15:00 UTC,-12%,+100%,-30%
2015-11-27-16:00 UTC,-10%,-47%,-37%
2015-11-27-17:00 UTC,-8%,+7%,-19%
2015-11-27-18:00 UTC,-2%,-27%,-11%
2015-11-27-19:00 UTC,+2%,+60%,-4%
2015-11-27-20:00 UTC,-2%,+200%,-48%
2015-11-27-21:00 UTC,-6%,-13%,-48%
2015-11-27-22:00 UTC,-2%,+27%,-22%
2015-11-27-23:00 UTC,-4%,+147%,-11%
2015-11-28-00:00 UTC,-8%,-13%,-37%
2015-11-28-01:00 UTC,-6%,-27%,-19%
2015-11-28-02:00 UTC,-8%,+27%,-15%
2015-11-28-03:00 UTC,-12%,-27%,-7%
2015-11-28-04:00 UTC,-12%,+47%,+44%
2015-11-28-05:00 UTC,-10%,+33%,+26%
2015-11-28-06:00 UTC,-4%,+53%,+26%
2015-11-28-07:00 UTC,-4%,+67%,-15%
2015-11-28-08:00 UTC,+2%,+20%,-63%
2015-11-28-09:00 UTC,+12%,+93%,-4%
2015-11-28-10:00 UTC,+6%,+140%,+78%
2015-11-28-11:00 UTC,+6%,+193%,+163%
2015-11-28-12:00 UTC,+8%,+73%,+4%
2015-11-28-13:00 UTC,+12%,+53%,+81%
2015-11-28-14:00 UTC,+0%,+413%,+159%
2015-11-28-15:00 UTC,-14%,-53%,+174%
2015-11-28-16:00 UTC,-10%,-7%,+63%
2015-11-28-17:00 UTC,-18%,+93%,-41%


Top cities for Child custody
City,Child custody
Beverly Hills,100
Victorville,88
Aliso Viejo,80
Orange,64
Corona,57
San Bernardino,56
Rancho Cucamonga,51
Long Beach,49
Garden Grove,49
Riverside,48
Mission Viejo,47
Menifee,44
Ontario,42
La Puente,0
Camarillo,0

Top cities for divorce
City,divorce
Beverly Hills,100
Santa Clarita,55
Aliso Viejo,54
Redondo Beach,41
Burbank,41
Cypress,37
Corona,37
Thousand Oaks,36
Camarillo,36
Huntington Beach,33
Chino,32
Redlands,31
Lancaster,30
Lake Forest,29
Newport Beach,28



Top searches for Child custody
custody,100
child custody,100
child custody laws,90
custody laws,70


Top searches for divorce
shahs of sunset divorce,100
divorce attorney,70
liberte chan divorce,60
girlfriends guide to divorce,40
divorce lawyers,35
obama divorce,30
jessica parido,15
liberte chan,15



Rising searches for Child custody
custody laws,+40%


Rising searches for divorce
shahs of sunset divorce,Breakout
jessica parido,+300%
obama divorce,+140%
divorce lawyers,+110%
girlfriends guide to divorce,+80%



